<svg width="72" height="70" viewBox="0 0 72 70" fill="none" xmlns="http://www.w3.org/2000/svg">
<path d="M52.8334 36.3695C52.8314 26.7862 47.0104 19.8745 39.0582 18.5028C35.0552 17.8125 31.2876 18.5047 27.7579 20.5115C26.7753 21.0701 26.265 20.9394 25.6734 19.9787C24.3014 17.7573 22.9447 15.5252 21.5547 13.3146C21.2081 12.7628 21.1317 12.1977 21.1562 11.5724C21.2434 9.36377 21.3061 7.15447 21.3829 4.94551C21.3969 4.54566 21.4681 4.14548 21.4525 3.74792C21.4221 2.98089 21.8118 2.5621 22.4851 2.28671C25.0005 1.26096 27.5887 0.494906 30.2681 0.0437699C31.1227 -0.0999665 31.5065 0.0927709 31.9439 0.884301C33.0131 2.81984 34.0872 4.75244 35.1365 6.69909C35.3416 7.07934 35.567 7.27894 36.0208 7.24888C36.5921 7.20896 37.1661 7.23373 37.7319 7.32271C38.153 7.39066 38.4317 7.24823 38.6793 6.87517C39.9334 4.98503 41.2165 3.11417 42.4906 1.23743C43.0433 0.423365 43.3726 0.300209 44.3235 0.529207C46.8716 1.14335 49.3278 2.011 51.6822 3.16383C52.7471 3.68651 52.8964 3.94948 52.7491 5.14412C52.4812 7.31748 52.2111 9.49117 51.9118 11.6606C51.8615 12.0255 51.9625 12.2235 52.2441 12.4195C52.7128 12.7461 53.1973 13.066 53.6033 13.4622C53.9993 13.8487 54.3547 13.8304 54.8316 13.652C56.9024 12.8788 58.986 12.1405 61.0652 11.3895C62.0031 11.0507 62.3879 11.1608 63.0253 11.9007C64.7566 13.9199 66.2391 16.1099 67.4961 18.4538C67.9482 19.2966 67.8986 19.7115 67.2452 20.4021C65.7386 21.9946 64.2398 23.595 62.7166 25.1715C62.3824 25.5171 62.2762 25.8248 62.4634 26.2822C62.6625 26.7573 62.811 27.2521 62.9064 27.7584C63.0014 28.2925 63.2941 28.5003 63.7907 28.6369C65.9395 29.2288 68.0743 29.873 70.2219 30.4698C70.9732 30.6782 71.379 31.0722 71.4564 31.8889C71.7223 34.6947 71.5991 37.4825 71.1728 40.2612C71.0748 40.909 70.673 41.2246 69.8968 41.3693C67.7058 41.777 65.5194 42.2026 63.3245 42.5927C62.8884 42.6704 62.6551 42.854 62.5353 43.2787C62.387 43.8112 62.2023 44.333 61.9825 44.8402C61.8068 45.24 61.8519 45.5318 62.1272 45.8777C63.5646 47.6816 64.9788 49.5038 66.3962 51.3233C66.9424 52.0244 66.9695 52.3256 66.5148 53.0841C65.0934 55.4587 63.3874 57.6509 61.4347 59.612C60.8869 60.1625 60.4916 60.2197 59.785 59.8881C57.7315 58.925 55.6771 57.9643 53.6318 56.9839C53.229 56.7909 52.9131 56.7612 52.5495 57.0767C52.1774 57.3998 51.7655 57.6974 51.329 57.9202C50.8018 58.1861 50.6757 58.5624 50.7022 59.1181C50.8034 61.345 50.8743 63.5733 50.939 65.8018C50.9664 66.7391 50.7838 66.9981 49.9113 67.3617C47.412 68.4056 44.8013 69.1594 42.1302 69.6082C41.2979 69.7481 40.9104 69.5599 40.4903 68.8017C39.4002 66.8345 38.3108 64.8669 37.2406 62.8889C37.0531 62.5423 36.8362 62.3959 36.4367 62.4025C35.8284 62.4126 35.2178 62.3698 34.6112 62.3192C34.2251 62.2865 33.9784 62.4123 33.7599 62.7406C32.5355 64.582 31.2915 66.4104 30.0521 68.2418C29.3416 69.2917 29.1299 69.3714 27.9144 69.0764C25.3937 68.4638 22.9476 67.5773 20.6198 66.4327C19.7162 65.989 19.5349 65.714 19.6518 64.7225C19.9458 62.2261 20.2725 59.7336 20.5871 57.2397C20.6283 56.9131 20.7645 56.6226 20.9435 56.3453C22.4327 54.0394 23.9196 51.732 25.4042 49.4231C26.0184 48.4721 26.5378 48.3578 27.5002 48.9373C34.3427 53.0583 42.8381 51.9708 48.3465 46.1956C51.3598 43.0327 52.8007 39.2005 52.8334 36.3695ZM23.5977 10.693C23.603 11.4159 23.535 12.0507 23.9466 12.6759C24.9939 14.2675 25.9769 15.9025 26.952 17.5398C27.2029 17.9608 27.3953 18.0098 27.8409 17.7919C31.3634 16.0684 35.081 15.4605 38.9583 16.0606C49.8985 17.7511 56.7215 27.9319 54.9653 38.0513C52.7922 50.5733 39.1085 57.5863 27.5041 51.6631C27.0951 51.4543 26.8997 51.4671 26.6462 51.8728C25.5124 53.6816 24.3455 55.4695 23.1881 57.2629C23.0309 57.5015 22.9314 57.7734 22.8977 58.0571C22.6529 60.0413 22.3982 62.0243 22.1336 64.0061C22.0839 64.3736 22.1989 64.5641 22.5331 64.7108C24.1896 65.4424 25.8951 66.0578 27.637 66.5525C28.0781 66.6773 28.3162 66.58 28.57 66.1932C29.8081 64.3155 31.0854 62.4626 32.3356 60.5937C32.6704 60.0939 33.0899 59.777 33.7125 59.86C34.947 60.0233 36.1858 59.9786 37.4239 59.9616C38.0651 59.9528 38.4976 60.2265 38.8034 60.7897C39.8582 62.7324 40.9493 64.6559 41.9872 66.6077C42.225 67.0546 42.4883 67.135 42.9381 67.0357C44.6507 66.6595 46.3361 66.1691 47.9833 65.5679C48.3808 65.4222 48.5386 65.2413 48.5167 64.7882C48.4112 62.5423 48.3534 60.2945 48.2635 58.0479C48.2355 57.3495 48.4759 56.8494 49.106 56.4992C50.1058 55.9415 51.0525 55.2934 51.934 54.563C52.4848 54.1082 53.0193 54.0491 53.6706 54.367C55.6764 55.3411 57.7054 56.2669 59.7141 57.2365C60.0908 57.4181 60.3191 57.3786 60.5922 57.0666C61.7229 55.7763 62.7808 54.4239 63.7609 53.0158C64.1288 52.4883 64.0638 52.157 63.6855 51.6886C62.2965 49.9683 60.9555 48.2095 59.5828 46.4762C59.1976 45.9897 59.1254 45.4961 59.3731 44.933C59.8088 43.9369 60.2224 42.9259 60.4645 41.8668C60.6719 40.9521 61.1783 40.5336 62.09 40.3834C64.1755 40.0397 66.2476 39.6147 68.3278 39.2368C68.7283 39.1639 68.9462 39.0267 68.9988 38.5645C69.1948 36.8547 69.1857 35.1422 69.184 33.4269C69.184 32.8594 68.9929 32.584 68.4222 32.4295C66.2894 31.8513 64.1755 31.2048 62.0456 30.6142C61.3576 30.4234 60.9764 30.0288 60.8369 29.334C60.6195 28.2299 60.2977 27.149 59.8758 26.1058C59.5906 25.4074 59.7206 24.885 60.2351 24.3509C61.7816 22.7443 63.2902 21.1011 64.8301 19.488C65.0915 19.2149 65.0961 19.0088 64.9151 18.6965C64.012 17.1487 63.0044 15.6643 61.8992 14.2537C61.5977 13.8663 61.3292 13.8183 60.8843 13.9836C58.7589 14.7741 56.6185 15.5232 54.4893 16.303C53.9094 16.5153 53.4204 16.4464 52.9605 16.0253C52.0746 15.2132 51.1189 14.4807 50.1043 13.8366C49.5108 13.4609 49.3249 12.9503 49.4157 12.277C49.7127 10.0694 49.99 7.85911 50.2843 5.65112C50.3317 5.29603 50.2259 5.08859 49.8865 4.93897C48.2136 4.19704 46.4894 3.57671 44.7273 3.08281C44.3451 2.97664 44.1138 3.04492 43.8799 3.39871C42.6294 5.29113 41.343 7.1597 40.082 9.04526C39.7331 9.56794 39.2954 9.87174 38.6508 9.78289C37.4748 9.61955 36.2916 9.65647 35.111 9.68489C34.4057 9.7022 33.9252 9.44609 33.5845 8.81201C32.5391 6.86471 31.451 4.93897 30.3984 2.99461C30.2086 2.64409 30.0162 2.49839 29.5948 2.58758C27.7668 2.97166 25.9716 3.49801 24.2256 4.16182C23.9316 4.27452 23.8192 4.44994 23.8094 4.758C23.7451 6.75854 23.668 8.75779 23.5977 10.6923V10.693Z" fill="#346BAE"/>
<path d="M20.3016 50.0748C17.1656 50.0748 14.6077 47.5646 14.6149 44.4939C14.6221 41.4728 17.2031 38.9368 20.2827 38.9251C23.3906 38.9133 25.9854 41.448 25.9926 44.5024C25.9998 47.5767 23.4475 50.0758 20.3016 50.0748ZM20.3219 41.3526C18.453 41.3454 17.0551 42.6884 17.0457 44.4994C17.0362 46.2785 18.4736 47.7008 20.2902 47.71C22.1068 47.7191 23.5569 46.3053 23.5674 44.5292C23.5765 42.7155 22.1917 41.3601 20.3219 41.3533V41.3526Z" fill="#346BAE"/>
<path d="M20.2978 19.57C23.4545 19.5782 25.9992 22.0661 25.9924 25.1372C25.9855 28.1932 23.3904 30.7324 20.287 30.7194C17.1836 30.7063 14.5947 28.1432 14.616 25.0973C14.6372 22.0514 17.1964 19.5622 20.2978 19.57ZM20.3053 28.2922C22.1719 28.2958 23.5698 26.9407 23.5678 25.1297C23.5678 23.349 22.1255 21.9397 20.3043 21.9374C18.4887 21.9351 17.0415 23.3519 17.0428 25.1303C17.0438 26.9427 18.4325 28.2896 20.3053 28.2915V28.2922Z" fill="#346BAE"/>
<path d="M0.0720268 53.546C0.0677801 50.44 2.59068 47.9465 5.73589 47.9481C8.83668 47.9501 11.3873 50.4338 11.4288 53.4954C11.471 56.5138 8.84093 59.1011 5.72969 59.1017C2.61845 59.1024 0.0762736 56.6102 0.0720268 53.546ZM5.75288 56.6755C7.61949 56.6667 9.01504 55.3035 9.00655 53.497C8.99805 51.7486 7.50058 50.3074 5.70715 50.3217C3.91371 50.3361 2.42734 51.7963 2.43584 53.5414C2.44433 55.2993 3.90946 56.684 5.75288 56.6755Z" fill="#346BAE"/>
<path d="M0.0720226 14.9819C0.0739827 11.9157 2.6142 9.41243 5.72347 9.41177C8.83275 9.41112 11.4269 11.9559 11.4311 15.0178C11.4354 18.0729 8.85039 20.567 5.68754 20.5592C2.56748 20.5513 0.0700626 18.0709 0.0720226 14.9819ZM9.00752 14.9985C9.00752 13.2123 7.57702 11.836 5.72609 11.8393C3.88398 11.8426 2.42407 13.2476 2.43583 15.0064C2.44759 16.7547 3.92416 18.1803 5.73883 18.1947C7.54337 18.2094 9.0085 16.7766 9.00752 14.9985Z" fill="#346BAE"/>
<path d="M35.526 28.8331C38.6947 28.8276 41.216 31.2832 41.217 34.3823C41.217 37.4416 38.7016 39.9456 35.5936 39.9773C32.4856 40.009 29.8396 37.4243 29.8484 34.3605C29.8585 31.3191 32.4066 28.8387 35.526 28.8331ZM35.526 37.5494C37.3789 37.5543 38.8254 36.1885 38.8525 34.4075C38.879 32.6892 37.3724 31.2156 35.5711 31.1983C33.745 31.1806 32.2844 32.5827 32.2769 34.3601C32.2681 36.1735 33.6649 37.5445 35.5247 37.5494H35.526Z" fill="#346BAE"/>
<path d="M11.3593 34.3703C11.3616 37.4711 8.80109 40.0008 5.68495 39.976C2.56881 39.9512 -0.0360846 37.3711 0.000502863 34.3442C0.038397 31.2754 2.57371 28.8293 5.71174 28.8338C8.86022 28.8384 11.3573 31.2862 11.3593 34.3703ZM5.69704 37.5482C7.53915 37.5518 8.99056 36.1608 8.99644 34.3863C9.00134 32.6438 7.51791 31.2074 5.7039 31.1983C3.88988 31.1892 2.42867 32.603 2.42377 34.3791C2.41789 36.166 3.84218 37.5443 5.69704 37.5482Z" fill="#346BAE"/>
<path d="M20.4911 35.5538C17.9968 35.5538 15.5032 35.553 13.0102 35.5515C12.3242 35.5515 11.8616 35.2092 11.7362 34.6427C11.5882 33.9815 12.0302 33.3259 12.7162 33.2115C12.8835 33.1835 13.0576 33.19 13.2288 33.19C18.1027 33.19 22.9767 33.19 27.8507 33.19C28.6909 33.19 29.2087 33.5441 29.309 34.1736C29.4295 34.9315 28.9091 35.5407 28.0918 35.5456C26.264 35.5597 24.4363 35.5509 22.6086 35.5515L20.4911 35.5538Z" fill="#346BAE"/>
<path d="M30.3964 22.8185C31.1396 22.8185 31.8824 22.8211 32.6256 22.8185C33.4897 22.8149 34.161 23.1474 34.6369 23.8906C35.1808 24.74 35.7548 25.572 36.3131 26.4135C36.8972 27.2936 36.8534 27.977 36.189 28.4062C35.551 28.8175 34.8983 28.5856 34.341 27.7506C33.8862 27.0692 33.4139 26.3985 32.984 25.702C32.7657 25.3486 32.4992 25.2297 32.0935 25.2355C30.6839 25.2551 29.2736 25.2486 27.864 25.2391C27.1368 25.2346 26.6419 24.8817 26.5207 24.3186C26.3656 23.5969 26.817 22.925 27.5988 22.8737C28.5275 22.8126 29.4634 22.8593 30.3964 22.8593V22.8185Z" fill="#346BAE"/>
<path d="M30.3485 45.8362C29.5481 45.8362 28.7478 45.8411 27.9474 45.8362C27.0249 45.8293 26.5065 45.404 26.4999 44.6602C26.4934 43.9033 26.9984 43.4763 27.92 43.4734C29.292 43.4691 30.664 43.4587 32.0361 43.4799C32.4643 43.4868 32.7476 43.3541 32.9775 42.9866C33.4525 42.2278 33.9576 41.4885 34.4633 40.7483C34.9311 40.0622 35.5847 39.8842 36.1705 40.2667C36.7937 40.6741 36.9068 41.3497 36.4423 42.0634C35.7977 43.0529 35.146 44.0388 34.4747 45.0107C34.1075 45.5422 33.56 45.8127 32.921 45.8313C32.0635 45.8548 31.2057 45.8359 30.3485 45.8362Z" fill="#346BAE"/>
<path d="M15.8939 13.6239C16.656 13.6239 17.4191 13.6402 18.1806 13.6193C19.0378 13.5958 19.6768 13.9336 20.1406 14.6545C20.7287 15.5676 21.3493 16.4604 21.9445 17.3685C22.3944 18.0513 22.3124 18.7507 21.757 19.1427C21.1553 19.57 20.4846 19.422 19.9907 18.718C19.4661 17.9686 18.9585 17.2076 18.4681 16.4349C18.2613 16.1082 18.0202 15.9746 17.6295 15.9802C16.2196 16.0001 14.809 15.991 13.3984 15.9861C12.5409 15.9831 12.0012 15.5313 11.9937 14.8241C11.9862 14.1168 12.538 13.6347 13.3775 13.6268C14.2171 13.619 15.0553 13.6245 15.8939 13.6239Z" fill="#346BAE"/>
<path d="M15.8818 56.377C15.006 56.377 14.1305 56.3861 13.2551 56.3737C12.5269 56.3632 12.0215 55.8977 11.9941 55.244C11.9673 54.6041 12.52 54.0308 13.2387 54.0207C14.6852 54.0004 16.1319 54.0004 17.5786 54.0207C18.0052 54.0265 18.2852 53.9011 18.5155 53.5306C18.9865 52.7708 19.4955 52.0332 20.0012 51.2962C20.4556 50.6347 21.1576 50.4635 21.7198 50.8568C22.2993 51.2619 22.4084 51.9499 21.9707 52.6209C21.3262 53.6094 20.6774 54.5956 20.0035 55.5639C19.6373 56.0905 19.1022 56.3701 18.4515 56.3773C17.5949 56.3835 16.7384 56.3773 15.8818 56.377Z" fill="#346BAE"/>
</svg>
