<svg width="18" height="25" viewBox="0 0 18 25" fill="none" xmlns="http://www.w3.org/2000/svg">
<path d="M12.2267 17.0545L11.4953 17.3344C11.4953 17.3344 9.75538 17.9984 7.72027 13.3405C5.68515 8.68257 7.42508 8.01862 7.42508 8.01862L7.88542 7.84124C9.02107 7.40828 9.61884 6.19814 9.29114 4.99367L8.62204 2.53368C8.21612 1.0426 6.58544 0.184121 5.17938 0.721278L2.65698 1.68396C1.9605 1.9514 1.36998 2.42643 1.12386 3.12614C0.494345 4.91738 -0.257521 9.02198 2.49956 15.3345C5.42473 22.0284 9.92116 24.1311 11.8611 24.7475C12.4756 24.943 13.1108 24.87 13.6913 24.6472L15.9732 23.7754C17.5152 23.1877 17.9603 21.257 16.8587 19.9314L15.1462 17.8679C14.4233 16.9977 13.2389 16.6681 12.2267 17.0545Z" fill="#F5A93F"/>
</svg>
