<svg width="30" height="22" viewBox="0 0 30 22" fill="none" xmlns="http://www.w3.org/2000/svg">
<path d="M27 0H3C1.35 0 0.015 1.2375 0.015 2.75L0 19.25C0 20.7625 1.35 22 3 22H27C28.65 22 30 20.7625 30 19.25V2.75C30 1.2375 28.65 0 27 0ZM27 5.5L15 12.375L3 5.5V2.75L15 9.625L27 2.75V5.5Z" fill="#F5A93F"/>
</svg>
