<svg width="135" height="38" viewBox="0 0 135 38" fill="none" xmlns="http://www.w3.org/2000/svg">
<g id="Group">
<path id="BG" d="M130 37.6334H5C2.25125 37.6334 0 35.5154 0 32.9292V4.70415C0 2.11803 2.25125 -3.19481e-05 5 -3.19481e-05H130C132.749 -3.19481e-05 135 2.11803 135 4.70415V32.9292C135 35.5154 132.749 37.6334 130 37.6334Z" fill="white"/>
<path id="Border" d="M130 0.753812C132.315 0.753812 134.199 2.52611 134.199 4.70415V32.9292C134.199 35.1073 132.315 36.8796 130 36.8796H5C2.685 36.8796 0.80125 35.1073 0.80125 32.9292V4.70415C0.80125 2.52611 2.685 0.753812 5 0.753812H130ZM130 -3.19481e-05H5C2.25125 -3.19481e-05 0 2.11803 0 4.70415V32.9292C0 35.5154 2.25125 37.6334 5 37.6334H130C132.749 37.6334 135 35.5154 135 32.9292V4.70415C135 2.11803 132.749 -3.19481e-05 130 -3.19481e-05Z" fill="#A6A6A6"/>
<g id="Icon">
<path id="Vector" d="M10.4351 7.09268C10.1413 7.38198 9.97131 7.83241 9.97131 8.41573V29.2223C9.97131 29.8056 10.1413 30.2561 10.4351 30.5454L10.5076 30.6089L22.9001 18.9543V18.6791L10.5076 7.02447L10.4351 7.09268Z" fill="url(#paint0_linear_851_2)"/>
<path id="Vector_2" d="M27.0263 22.8411L22.9 18.9542V18.679L27.0313 14.7922L27.1238 14.8428L32.0163 17.4618C33.4125 18.2051 33.4125 19.4282 32.0163 20.1761L27.1238 22.7905L27.0263 22.8411Z" fill="url(#paint1_linear_851_2)"/>
<path id="Vector_3" d="M27.1238 22.7905L22.9001 18.8166L10.4351 30.5453C10.8988 31.004 11.6551 31.0593 12.5151 30.6006L27.1238 22.7905Z" fill="url(#paint2_linear_851_2)"/>
<path id="Vector_4" d="M27.1238 14.8428L12.5151 7.03268C11.6551 6.57872 10.8988 6.634 10.4351 7.09265L22.9001 18.8167L27.1238 14.8428Z" fill="url(#paint3_linear_851_2)"/>
</g>
<g id="GET IT ON">
<path id="G" d="M47.4175 9.63771C47.4175 10.4233 47.1675 11.0525 46.675 11.5217C46.1088 12.078 45.3713 12.3579 44.4675 12.3579C43.6038 12.3579 42.8663 12.0733 42.2613 11.5123C41.655 10.9431 41.3525 10.2446 41.3525 9.40838C41.3525 8.57222 41.655 7.87365 42.2613 7.30914C42.8663 6.74347 43.6038 6.45886 44.4675 6.45886C44.8975 6.45886 45.3075 6.54236 45.6988 6.6976C46.0888 6.85401 46.4063 7.0657 46.6363 7.32678L46.1138 7.82308C45.7125 7.37735 45.1663 7.15743 44.4675 7.15743C43.8375 7.15743 43.2913 7.36442 42.8275 7.78191C42.3688 8.20059 42.1388 8.74274 42.1388 9.40838C42.1388 10.074 42.3688 10.6209 42.8275 11.0396C43.2913 11.4524 43.8375 11.664 44.4675 11.664C45.1363 11.664 45.6988 11.4524 46.1425 11.0349C46.435 10.7585 46.6013 10.3774 46.645 9.89056H44.4675V9.21081H47.3725C47.4075 9.35781 47.4175 9.50012 47.4175 9.63771Z" fill="black" stroke="black" stroke-width="0.16" stroke-miterlimit="10"/>
<path id="E" d="M52.0263 7.28095H49.2975V9.06854H51.7575V9.74829H49.2975V11.5359H52.0263V12.2286H48.525V6.58826H52.0263V7.28095Z" fill="black" stroke="black" stroke-width="0.16" stroke-miterlimit="10"/>
<path id="T" d="M55.2788 12.2286H54.5063V7.28095H52.8325V6.58826H56.9538V7.28095H55.2788V12.2286Z" fill="black" stroke="black" stroke-width="0.16" stroke-miterlimit="10"/>
<path id="I" d="M59.9363 12.2286V6.58826H60.7075V12.2286H59.9363Z" fill="black" stroke="black" stroke-width="0.16" stroke-miterlimit="10"/>
<path id="T_2" d="M64.1263 12.2286H63.36V7.28095H61.6801V6.58826H65.8063V7.28095H64.1263V12.2286Z" fill="black" stroke="black" stroke-width="0.16" stroke-miterlimit="10"/>
<path id="O" d="M73.6088 11.5029C73.0176 12.0733 72.2851 12.3579 71.4113 12.3579C70.5326 12.3579 69.8001 12.0733 69.2088 11.5029C68.6188 10.9337 68.3251 10.2351 68.3251 9.40838C68.3251 8.58162 68.6188 7.88305 69.2088 7.31385C69.8001 6.74347 70.5326 6.45886 71.4113 6.45886C72.2801 6.45886 73.0126 6.74347 73.6038 7.31855C74.1988 7.89246 74.4926 8.58633 74.4926 9.40838C74.4926 10.2351 74.1988 10.9337 73.6088 11.5029ZM69.7801 11.0302C70.2251 11.4524 70.7663 11.664 71.4113 11.664C72.0513 11.664 72.5976 11.4524 73.0376 11.0302C73.4813 10.608 73.7063 10.0658 73.7063 9.40838C73.7063 8.75098 73.4813 8.20882 73.0376 7.78662C72.5976 7.36442 72.0513 7.15273 71.4113 7.15273C70.7663 7.15273 70.2251 7.36442 69.7801 7.78662C69.3363 8.20882 69.1113 8.75098 69.1113 9.40838C69.1113 10.0658 69.3363 10.608 69.7801 11.0302Z" fill="black" stroke="black" stroke-width="0.16" stroke-miterlimit="10"/>
<path id="N" d="M75.5763 12.2286V6.58826H76.5138L79.4288 10.9749H79.4625L79.4288 9.89059V6.58826H80.2V12.2286H79.395L76.3425 7.62553H76.3088L76.3425 8.71455V12.2286H75.5763Z" fill="black" stroke="black" stroke-width="0.16" stroke-miterlimit="10"/>
</g>
<g id="Google Play">
<path id="Google Play_2" d="M68.135 20.4655C65.7863 20.4655 63.8675 22.1472 63.8675 24.4676C63.8675 26.7691 65.7863 28.4685 68.135 28.4685C70.4888 28.4685 72.4075 26.7691 72.4075 24.4676C72.4075 22.1472 70.4888 20.4655 68.135 20.4655ZM68.135 26.8926C66.8463 26.8926 65.7375 25.8917 65.7375 24.4676C65.7375 23.0245 66.8463 22.0414 68.135 22.0414C69.4238 22.0414 70.5375 23.0245 70.5375 24.4676C70.5375 25.8917 69.4238 26.8926 68.135 26.8926ZM58.8238 20.4655C56.47 20.4655 54.5563 22.1472 54.5563 24.4676C54.5563 26.7691 56.47 28.4685 58.8238 28.4685C61.1763 28.4685 63.0913 26.7691 63.0913 24.4676C63.0913 22.1472 61.1763 20.4655 58.8238 20.4655ZM58.8238 26.8926C57.5338 26.8926 56.4213 25.8917 56.4213 24.4676C56.4213 23.0245 57.5338 22.0414 58.8238 22.0414C60.1125 22.0414 61.2213 23.0245 61.2213 24.4676C61.2213 25.8917 60.1125 26.8926 58.8238 26.8926ZM47.7438 21.6921V23.3927H52.06C51.9338 24.3429 51.5963 25.0415 51.0788 25.5283C50.4488 26.1164 49.4675 26.7691 47.7438 26.7691C45.0875 26.7691 43.0075 24.7522 43.0075 22.2531C43.0075 19.754 45.0875 17.7371 47.7438 17.7371C49.18 17.7371 50.225 18.2651 50.9963 18.9496L52.27 17.7512C51.1913 16.7821 49.7563 16.0377 47.7438 16.0377C44.1013 16.0377 41.04 18.8261 41.04 22.2531C41.04 25.6801 44.1013 28.4685 47.7438 28.4685C49.7125 28.4685 51.1913 27.8616 52.3538 26.7232C53.545 25.6024 53.9163 24.0265 53.9163 22.7541C53.9163 22.3589 53.8813 21.9955 53.8188 21.6921H47.7438ZM93.0513 23.0104C92.7 22.1155 91.6163 20.4655 89.4088 20.4655C87.2213 20.4655 85.4 22.0872 85.4 24.4676C85.4 26.7091 87.2025 28.4685 89.6188 28.4685C91.5725 28.4685 92.7 27.3477 93.1638 26.695L91.7138 25.7859C91.23 26.4515 90.5713 26.8926 89.6188 26.8926C88.6725 26.8926 87.9938 26.4845 87.5588 25.6801L93.2475 23.4656L93.0513 23.0104ZM87.2513 24.3429C87.2025 22.7999 88.525 22.0096 89.4725 22.0096C90.215 22.0096 90.845 22.3589 91.055 22.8587L87.2513 24.3429ZM82.6275 28.225H84.4975V16.4646H82.6275V28.225ZM79.565 21.3569H79.5025C79.0825 20.8888 78.2813 20.4655 77.2663 20.4655C75.1363 20.4655 73.1888 22.2248 73.1888 24.4805C73.1888 26.7232 75.1363 28.4685 77.2663 28.4685C78.2813 28.4685 79.0825 28.0416 79.5025 27.5594H79.565V28.1333C79.565 29.6633 78.6963 30.4854 77.295 30.4854C76.1525 30.4854 75.4438 29.7092 75.1513 29.0565L73.525 29.6951C73.9938 30.7559 75.235 32.0613 77.295 32.0613C79.4875 32.0613 81.3375 30.8476 81.3375 27.8946V20.7089H79.565V21.3569ZM77.4263 26.8926C76.1375 26.8926 75.0588 25.8776 75.0588 24.4805C75.0588 23.0704 76.1375 22.0414 77.4263 22.0414C78.6963 22.0414 79.6975 23.0704 79.6975 24.4805C79.6975 25.8776 78.6963 26.8926 77.4263 26.8926ZM101.806 16.4646H97.3338V28.225H99.1988V23.769H101.806C103.878 23.769 105.909 22.3589 105.909 20.1162C105.909 17.8746 103.873 16.4646 101.806 16.4646ZM101.855 22.1331H99.1988V18.1004H101.855C103.248 18.1004 104.043 19.1883 104.043 20.1162C104.043 21.0264 103.248 22.1331 101.855 22.1331ZM113.384 20.4431C112.036 20.4431 110.635 21.0029 110.059 22.2437L111.714 22.8964C112.07 22.2437 112.725 22.032 113.418 22.032C114.385 22.032 115.366 22.5788 115.381 23.5444V23.6678C115.044 23.4844 114.321 23.2127 113.433 23.2127C111.65 23.2127 109.834 24.1359 109.834 25.8588C109.834 27.4347 111.294 28.4496 112.935 28.4496C114.19 28.4496 114.883 27.9169 115.318 27.2971H115.381V28.2062H117.183V23.6949C117.183 21.6098 115.528 20.4431 113.384 20.4431ZM113.159 26.8879C112.549 26.8879 111.699 26.6033 111.699 25.8917C111.699 24.9815 112.759 24.6322 113.676 24.6322C114.498 24.6322 114.883 24.8027 115.381 25.0274C115.235 26.1164 114.239 26.8879 113.159 26.8879ZM123.745 20.7007L121.601 25.7988H121.538L119.321 20.7007H117.31L120.64 27.8252L118.74 31.7896H120.689L125.82 20.7007H123.745ZM106.934 28.225H108.804V16.4646H106.934V28.225Z" fill="black"/>
</g>
</g>
<defs>
<linearGradient id="paint0_linear_851_2" x1="21.7998" y1="29.439" x2="6.03958" y2="12.6878" gradientUnits="userSpaceOnUse">
<stop stop-color="#00A0FF"/>
<stop offset="0.0066" stop-color="#00A1FF"/>
<stop offset="0.2601" stop-color="#00BEFF"/>
<stop offset="0.5122" stop-color="#00D2FF"/>
<stop offset="0.7604" stop-color="#00DFFF"/>
<stop offset="1" stop-color="#00E3FF"/>
</linearGradient>
<linearGradient id="paint1_linear_851_2" x1="33.8344" y1="18.8153" x2="9.63753" y2="18.8153" gradientUnits="userSpaceOnUse">
<stop stop-color="#FFE000"/>
<stop offset="0.4087" stop-color="#FFBD00"/>
<stop offset="0.7754" stop-color="#FFA500"/>
<stop offset="1" stop-color="#FF9C00"/>
</linearGradient>
<linearGradient id="paint2_linear_851_2" x1="24.8271" y1="16.6564" x2="3.45498" y2="-6.05966" gradientUnits="userSpaceOnUse">
<stop stop-color="#FF3A44"/>
<stop offset="1" stop-color="#C31162"/>
</linearGradient>
<linearGradient id="paint3_linear_851_2" x1="7.29736" y1="37.4676" x2="16.841" y2="27.324" gradientUnits="userSpaceOnUse">
<stop stop-color="#32A071"/>
<stop offset="0.0685" stop-color="#2DA771"/>
<stop offset="0.4762" stop-color="#15CF74"/>
<stop offset="0.8009" stop-color="#06E775"/>
<stop offset="1" stop-color="#00F076"/>
</linearGradient>
</defs>
</svg>
