<svg width="72" height="77" viewBox="0 0 72 77" fill="none" xmlns="http://www.w3.org/2000/svg">
<g clip-path="url(#clip0_225_404)">
<path d="M9.16931 59.2382C9.16931 54.7919 9.16931 50.3456 9.16931 45.8994C9.16931 44.6314 8.91759 44.3769 7.65935 44.3669C6.52142 44.3583 5.38338 44.3583 4.24523 44.3669C3.00178 44.3742 2.81324 44.5698 2.80182 45.8362C2.79745 46.3102 2.81828 46.7859 2.79106 47.2585C2.73897 48.162 2.21638 48.6965 1.41318 48.7025C0.585444 48.7085 0.0625214 48.2036 0.026226 47.2891C-0.0057005 46.4908 -0.0147743 45.6865 0.0332835 44.8888C0.129399 43.2872 1.39234 41.8781 3.00581 41.6622C4.9093 41.4058 6.83699 41.4194 8.73813 41.635C10.6786 41.8548 11.913 43.3271 11.9409 45.3109C11.9698 47.3857 11.9688 49.4607 11.9378 51.5359C11.9261 52.2647 12.0696 52.4444 12.8486 52.2235C16.1703 51.2821 19.5521 50.6884 23.0291 50.8999C25.1275 51.0277 26.9332 52.0126 28.4344 53.3089C30.6431 55.2162 33.2429 55.5043 35.9442 55.7295C38.4476 55.9374 40.9402 56.2358 43.413 56.7138C46.2024 57.253 47.9268 59.0316 49.1521 61.391C49.4418 61.9485 49.6834 62.0107 50.2355 61.841C54.2949 60.5943 58.3627 59.3742 62.4301 58.1538C64.1545 57.6365 65.8705 57.8587 67.5599 58.3121C68.4673 58.5559 69.0224 59.2189 69.2463 60.1196C69.6432 61.7163 69.6748 63.3482 69.5904 64.9785C69.5528 65.7103 69.0671 66.1148 68.3806 66.3623C62.9799 68.3104 57.5825 70.2674 52.1881 72.2333C49.4895 73.2113 46.811 74.2531 44.0798 75.1333C39.7882 76.516 35.4959 76.2779 31.1747 75.0634C25.1591 73.3716 19.1001 71.8185 13.0586 70.2122C12.0067 69.9325 11.9751 69.9817 11.9449 71.0937C11.9157 72.1581 12.0679 73.2289 11.8044 74.2824C11.4163 75.8371 10.0515 76.9574 8.44105 76.9841C6.82411 77.0102 5.20695 77.0102 3.58956 76.9841C1.67733 76.9524 0.0672264 75.5324 0.0437016 73.6523C-0.0188072 68.7027 0.0100947 63.7517 0.0268982 58.8014C0.0295867 57.9365 0.655682 57.3295 1.40041 57.3471C2.17337 57.3657 2.75846 57.9332 2.78165 58.8137C2.82064 60.2949 2.79913 61.7778 2.79946 63.2601C2.80126 66.4312 2.80215 69.603 2.80215 72.7755C2.8045 73.989 3.04547 74.2252 4.28085 74.2351C5.4488 74.2444 6.61676 74.2444 7.78471 74.2351C8.87121 74.2245 9.16259 73.9431 9.16259 72.8454C9.1711 68.31 9.17222 63.775 9.16595 59.2405L9.16931 59.2382ZM11.954 61.1954H11.9509C11.9509 62.8549 11.9772 64.5148 11.9382 66.1733C11.9227 66.8309 12.1734 67.1074 12.8042 67.2737C19.5982 69.0686 26.3882 70.8785 33.1744 72.7033C37.0344 73.7372 40.8108 73.4454 44.5388 72.0733C48.8304 70.4936 53.1338 68.9465 57.4324 67.3831C60.298 66.3424 63.164 65.3024 66.0304 64.263C66.4566 64.1083 66.8961 63.9856 66.8276 63.3722C66.759 62.7588 66.7247 62.1321 66.7042 61.5094C66.6874 60.9948 66.422 60.7909 65.9313 60.7224C64.7887 60.563 63.6823 60.6289 62.5656 60.9715C55.4197 63.1626 48.2642 65.3234 41.1146 67.5029C40.4089 67.7184 39.7294 67.745 39.0011 67.5667C34.9928 66.5848 30.9758 65.6374 26.9641 64.6708C26.209 64.4888 25.4428 64.3225 24.7192 64.0511C23.9956 63.7797 23.7782 63.1473 23.9798 62.4411C24.1748 61.7622 24.697 61.4266 25.4149 61.4958C25.8289 61.536 26.2365 61.6528 26.6435 61.7502C30.8905 62.7659 35.1369 63.7837 39.3825 64.8035C39.7045 64.8807 40.0093 64.9366 40.3484 64.8325C42.2627 64.2424 44.1807 63.6648 46.1026 63.0997C46.5875 62.957 46.7287 62.7644 46.4659 62.2771C45.6284 60.7227 44.4229 59.6869 42.6296 59.3569C40.3622 58.9394 38.0773 58.6361 35.7809 58.4874C32.5708 58.2795 29.4611 57.861 26.9255 55.6297C26.5477 55.2971 26.1048 55.0353 25.682 54.7575C24.5592 54.0224 23.3511 53.5793 21.9742 53.6142C20.806 53.6439 19.6395 53.6735 18.4848 53.8571C16.507 54.1714 14.5192 54.4438 12.6483 55.2192C12.1294 55.4344 11.9375 55.7514 11.9473 56.3043C11.9721 57.9355 11.954 59.5655 11.954 61.1954Z" fill="#346BAE"/>
<path d="M72 16.0997C71.9761 21.2133 71.1975 26.2867 69.0823 31.09C66.3554 37.2827 61.8359 41.754 55.6133 44.5236C53.3119 45.5478 50.9043 46.2576 48.4389 46.7905C47.7799 46.9332 47.2139 46.8607 46.6325 46.5394C43.0437 44.5582 39.7942 42.1665 37.2357 38.9426C34.2813 35.2204 32.6712 30.9799 32.3671 26.2638C31.8996 19.0146 34.1032 12.4074 37.3806 6.06399C38.2409 4.4008 39.2407 2.81579 40.2634 1.24673C41.2359 -0.245813 42.0563 -0.386518 43.3888 0.761082C47.2812 4.11041 50.6015 7.94805 53.2477 12.3332C53.6937 13.072 53.944 12.9652 54.4797 12.4663C58.443 8.77998 62.9487 5.89169 67.8966 3.67565C69.6684 2.88231 70.3583 3.19699 70.7935 5.07273C71.628 8.66689 71.9859 12.3179 72 16.0997ZM45.9651 42.9136C45.458 38.9412 44.9794 35.2137 44.5076 31.4852C44.1547 28.6943 43.7991 25.9035 43.4695 23.11C43.3686 22.2575 43.8193 21.6574 44.5543 21.5356C45.377 21.3996 45.9564 21.8094 46.1721 22.6896C46.2189 22.8916 46.2541 23.096 46.2777 23.302C47.017 29.1195 47.749 34.938 48.5115 40.7521C48.5747 41.2331 48.4167 42.0181 48.8234 42.1359C49.3581 42.2902 49.6041 41.5248 49.9243 41.138C54.3893 35.73 56.2848 29.6344 54.6293 22.7225C52.8085 15.1157 48.1808 9.20476 42.67 3.86626C42.2811 3.48938 42.0234 3.62543 41.7626 4.05054C38.8616 8.80526 36.5733 13.8135 35.5789 19.311C34.4605 25.4844 35.1014 31.3481 38.9675 36.5945C40.83 39.1182 43.1727 41.0874 45.9651 42.9136ZM52.4213 42.5776C52.7829 42.7327 52.9419 42.6206 53.1029 42.558C59.0745 40.2432 63.6161 36.359 66.2566 30.5165C69.6442 23.0212 69.7198 15.1952 68.4054 7.25517C68.2784 6.48711 67.9137 6.71364 67.4806 6.93218C63.1093 9.14023 59.0809 11.822 55.5837 15.2588C55.2201 15.616 55.1714 15.8998 55.3861 16.3418C56.0488 17.7057 56.555 19.1303 56.971 20.586C58.8194 27.0548 58.2054 33.2362 54.7802 39.0959C54.0808 40.2941 53.2669 41.4174 52.4213 42.5776Z" fill="#346BAE"/>
<path d="M0.0252141 52.752C0.0252141 51.2465 -0.0083928 49.733 0.0329436 48.2375C0.0964606 45.9167 0.526628 44.3563 1.32614 44.2631C2.11186 44.1716 2.68284 45.5138 2.74199 47.8373C2.82702 51.1813 2.82601 54.5689 2.75174 57.9162C2.70334 60.0947 2.20092 61.4545 1.42998 61.4608C0.626105 61.4678 0.134436 60.1409 0.0470585 57.7942C-0.0154502 56.133 0.03496 54.4345 0.03496 52.752H0.0252141Z" fill="#346BAE"/>
</g>
<defs>
<clipPath id="clip0_225_404">
<rect width="72" height="77" fill="white"/>
</clipPath>
</defs>
</svg>
